module git.massivebox.net/ecodash/ecodash

go 1.20

require (
	github.com/gofiber/fiber/v2 v2.37.1
	github.com/gofiber/template v1.7.1
	github.com/robfig/cron/v3 v3.0.1
	modernc.org/sqlite v1.22.1
)

require (
	github.com/andybalholm/brotli v1.0.4 // indirect
	github.com/dustin/go-humanize v1.0.1 // indirect
	github.com/google/uuid v1.3.0 // indirect
	github.com/kballard/go-shellquote v0.0.0-20180428030007-95032a82bc51 // indirect
	github.com/klauspost/compress v1.15.0 // indirect
	github.com/mattn/go-isatty v0.0.16 // indirect
	github.com/remyoudompheng/bigfft v0.0.0-20230129092748-24d4a6f8daec // indirect
	github.com/valyala/bytebufferpool v1.0.0 // indirect
	github.com/valyala/fasthttp v1.40.0 // indirect
	github.com/valyala/tcplisten v1.0.0 // indirect
	golang.org/x/mod v0.5.1 // indirect
	golang.org/x/sys v0.0.0-20220811171246-fbc7d0a398ab // indirect
	golang.org/x/tools v0.1.9 // indirect
	golang.org/x/xerrors v0.0.0-20200804184101-5ec99f83aff1 // indirect
	lukechampine.com/uint128 v1.2.0 // indirect
	modernc.org/cc/v3 v3.40.0 // indirect
	modernc.org/ccgo/v3 v3.16.13 // indirect
	modernc.org/libc v1.22.5 // indirect
	modernc.org/mathutil v1.5.0 // indirect
	modernc.org/memory v1.5.0 // indirect
	modernc.org/opt v0.1.3 // indirect
	modernc.org/strutil v1.1.3 // indirect
	modernc.org/token v1.0.1 // indirect
)
